GÜN,FİYAT
1,6.67410
2,6.67500
3,6.65840
4,6.68380
5,6.67480
6,6.64740
7,6.54540
8,6.52880
9,6.52130
10,6.56130
11,6.56220
12,6.55760
13,6.52890
14,6.55300
15,6.57980
16,6.58410
17,6.57030
18,6.55910
19,6.55890
20,6.54870
21,6.54890
22,6.59010
23,6.59830
24,6.62730
25,6.61360
26,6.60360
27,6.58800
28,6.56360
29,6.57620
30,6.58960
31,6.58480
32,6.58730
33,6.56680
34,6.55530
35,6.57140
36,6.55460
37,6.57720
38,6.60410
39,6.65290
40,6.65350
41,6.70110
42,6.74650
43,6.87160
44,6.90270
45,6.90130
46,6.80490
47,6.79020
48,6.87280
49,6.98600
50,6.95800
51,6.97950
52,7.02650
53,7.02260
54,7.12710
55,7.16930
56,7.09990
57,7.06780
58,6.98630
59,7.06110
60,7.05820
61,6.93960
62,7.07370
63,7.10240
64,7.22800
65,7.22370
66,7.28870
67,7.29800
68,7.24090
69,7.31210
70,7.33850
71,7.36760
72,7.33670
73,7.33080
74,7.40870
75,7.42520
76,7.50060
77,7.52810
78,7.50410
79,7.52130
80,7.55340
81,7.58660
82,7.50370
83,7.57260
84,7.60140
85,7.59010
86,7.59630
87,7.68770
88,7.67620
89,7.72510
90,7.80840
91,7.70330
92,7.66460
93,7.60580
94,7.58710
95,7.52570
96,7.47590
97,7.43190
98,7.44140
99,7.46340
100,7.41980
101,7.44330
102,7.48720
103,7.59070
104,7.58610
105,7.57900
106,7.55750
107,7.58140
108,7.67820
109,7.65860
110,7.65910
111,7.71700
112,7.72640
113,7.72360
114,7.68790
115,7.74460
116,7.70230
117,7.71310
118,7.68770
119,7.68510
120,7.74180
121,7.75030
122,7.69350
123,7.69140
124,7.72210
125,7.68580
126,7.69120
127,7.73500
128,7.69980
129,7.74950
130,7.74390
131,7.74470
132,7.78280
133,7.74480
134,7.77400
135,7.79550
136,7.81620
137,7.82230
138,7.85320
139,7.84370
140,7.90720
141,7.93330
142,7.94410
143,8.02190
144,8.08450
145,8.16280
146,8.16280
147,8.18230
148,8.28670
149,8.50120
150,8.60930
151,8.60050
152,8.54530
153,8.58130
154,8.67200
155,8.68660
156,8.74860
157,8.78360
158,8.78680
159,8.65450
160,8.54350
161,8.69210
162,8.72370
163,8.69110
164,8.66770
165,8.70540
166,8.74410
167,8.81370
168,8.74790
169,8.75930
170,8.79800
171,8.80970
172,8.81520
173,8.80130
174,8.83870
175,8.83300
176,8.87390
177,8.89180
178,8.87660
179,8.88070
180,8.94560
181,8.95910
182,8.97140
183,8.97520
184,8.94380
185,8.82090
186,9.04300
187,9.14460
188,9.09990
189,9.05390
190,9.07610
191,9.09780
192,9.14210
193,9.22240
194,9.30270
195,9.34100
196,9.30560
197,9.30330
198,9.31540
199,9.28910
200,9.28590
201,9.26960
202,9.30410
203,9.28440
204,9.25540
205,9.41110
206,9.50950
207,9.61470
208,9.61470
209,9.71600
210,9.76820
211,9.89800
212,9.88920
213,9.95950
214,10.04600
215,9.73480
216,9.74530
217,9.50920
218,9.20270
219,9.03320
220,9.10940
221,9.20020
222,9.18660
223,9.09470
224,9.01120
225,9.23630
226,9.41250
227,9.46690
228,9.42370
229,9.31560
230,9.34740
231,9.40370
232,9.43040
233,9.52770
234,9.47960
235,9.50840
236,9.47900
237,9.50110
238,9.51030
239,9.64140
240,9.57970
241,9.53550
242,9.50790
243,9.49880
244,9.44000
245,9.36720
246,9.35150
247,9.31970
248,9.31160
249,9.22030
250,9.15350
251,9.08610
252,9.02410
